RISCV_single/src/memory_subsystem.vcd
$date
	Tue Jul 07 16:57:51 2026
$end
$version
	Icarus Verilog
$end
$timescale
	1ps
$end
$scope module tb $end
$var wire 1 ! stall $end
$var wire 32 " read_data [31:0] $end
$var reg 1 # MemRead $end
$var reg 1 $ MemWrite $end
$var reg 32 % address [31:0] $end
$var reg 1 & clk $end
$var reg 1 ' rst $end
$var reg 32 ( write_data [31:0] $end
$scope module dut $end
$var wire 1 # MemRead $end
$var wire 1 $ MemWrite $end
$var wire 32 ) address [31:0] $end
$var wire 1 * cache_resp_done $end
$var wire 1 & clk $end
$var wire 1 ' rst $end
$var wire 32 + write_data [31:0] $end
$var wire 1 ! stall $end
$var wire 32 , read_data [31:0] $end
$var wire 1 - memory_busy $end
$var wire 4 . mem_slave_write_strb [3:0] $end
$var wire 1 / mem_slave_write_resp_valid $end
$var wire 1 0 mem_slave_write_resp_ready $end
$var wire 2 1 mem_slave_write_resp [1:0] $end
$var wire 1 2 mem_slave_write_data_valid $end
$var wire 1 3 mem_slave_write_data_ready $end
$var wire 32 4 mem_slave_write_data [31:0] $end
$var wire 1 5 mem_slave_write_addr_valid $end
$var wire 1 6 mem_slave_write_addr_ready $end
$var wire 32 7 mem_slave_write_addr [31:0] $end
$var wire 2 8 mem_slave_read_resp [1:0] $end
$var wire 1 9 mem_slave_read_data_valid $end
$var wire 1 : mem_slave_read_data_ready $end
$var wire 32 ; mem_slave_read_data [31:0] $end
$var wire 1 < mem_slave_read_addr_valid $end
$var wire 1 = mem_slave_read_addr_ready $end
$var wire 32 > mem_slave_read_addr [31:0] $end
$var wire 4 ? ic_master_write_strb [3:0] $end
$var wire 1 @ ic_master_write_resp_valid $end
$var wire 1 A ic_master_write_resp_ready $end
$var wire 2 B ic_master_write_resp [1:0] $end
$var wire 1 C ic_master_write_data_valid $end
$var wire 1 D ic_master_write_data_ready $end
$var wire 32 E ic_master_write_data [31:0] $end
$var wire 1 F ic_master_write_addr_valid $end
$var wire 1 G ic_master_write_addr_ready $end
$var wire 32 H ic_master_write_addr [31:0] $end
$var wire 2 I ic_master_read_resp [1:0] $end
$var wire 1 J ic_master_read_data_valid $end
$var wire 1 K ic_master_read_data_ready $end
$var wire 32 L ic_master_read_data [31:0] $end
$var wire 1 M ic_master_read_addr_valid $end
$var wire 1 N ic_master_read_addr_ready $end
$var wire 32 O ic_master_read_addr [31:0] $end
$var wire 1 P hit_way1 $end
$var wire 1 Q hit_way0 $end
$var wire 1 R cache_write_req $end
$var wire 1 S cache_write_done $end
$var wire 32 T cache_resp_data [31:0] $end
$var wire 4 U cache_req_strb [3:0] $end
$var wire 32 V cache_req_data [31:0] $end
$var wire 32 W cache_req_addr [31:0] $end
$var wire 1 X cache_read_req $end
$var wire 1 Y cache_read_done $end
$var wire 1 Z cache_miss $end
$var wire 1 [ cache_hit $end
$var wire 1 \ cache_busy_ic $end
$scope module axi_interconnect_inst $end
$var wire 1 & clk $end
$var wire 1 ' rst $end
$var wire 1 / mem_write_resp_valid $end
$var wire 2 ] mem_write_resp [1:0] $end
$var wire 1 3 mem_write_data_ready $end
$var wire 1 6 mem_write_addr_ready $end
$var wire 2 ^ mem_read_resp [1:0] $end
$var wire 1 9 mem_read_data_valid $end
$var wire 32 _ mem_read_data [31:0] $end
$var wire 1 = mem_read_addr_ready $end
$var wire 4 ` master_write_strb [3:0] $end
$var wire 1 A master_write_resp_ready $end
$var wire 1 C master_write_data_valid $end
$var wire 32 a master_write_data [31:0] $end
$var wire 1 F master_write_addr_valid $end
$var wire 32 b master_write_addr [31:0] $end
$var wire 1 K master_read_data_ready $end
$var wire 1 M master_read_addr_valid $end
$var wire 32 c master_read_addr [31:0] $end
$var reg 1 N master_read_addr_ready $end
$var reg 32 d master_read_data [31:0] $end
$var reg 1 J master_read_data_valid $end
$var reg 2 e master_read_resp [1:0] $end
$var reg 1 G master_write_addr_ready $end
$var reg 1 D master_write_data_ready $end
$var reg 2 f master_write_resp [1:0] $end
$var reg 1 @ master_write_resp_valid $end
$var reg 32 g mem_read_addr [31:0] $end
$var reg 1 < mem_read_addr_valid $end
$var reg 1 : mem_read_data_ready $end
$var reg 32 h mem_write_addr [31:0] $end
$var reg 1 5 mem_write_addr_valid $end
$var reg 32 i mem_write_data [31:0] $end
$var reg 1 2 mem_write_data_valid $end
$var reg 1 0 mem_write_resp_ready $end
$var reg 4 j mem_write_strb [3:0] $end
$upscope $end
$scope module cache_inst $end
$var wire 1 # MemRead $end
$var wire 1 $ MemWrite $end
$var wire 32 k address [31:0] $end
$var wire 1 [ cache_hit $end
$var wire 1 * cache_resp_done $end
$var wire 1 ! cache_stall $end
$var wire 1 & clk $end
$var wire 1 l dirty_evict_way0 $end
$var wire 1 m dirty_evict_way1 $end
$var wire 1 n fill_way0 $end
$var wire 1 o fill_way1 $end
$var wire 1 Q hit_way0 $end
$var wire 1 P hit_way1 $end
$var wire 1 p lru_write $end
$var wire 1 Z miss $end
$var wire 1 q replace_way0 $end
$var wire 1 r replace_way1 $end
$var wire 1 ' rst $end
$var wire 1 s way0_invalid $end
$var wire 1 t way1_invalid $end
$var wire 32 u write_data [31:0] $end
$var wire 1 v write_hit $end
$var wire 1 w write_hit_way0 $end
$var wire 1 x write_hit_way1 $end
$var wire 1 y write_way0 $end
$var wire 1 z write_way1 $end
$var wire 56 { write_hit_line1 [55:0] $end
$var wire 56 | write_hit_line0 [55:0] $end
$var wire 56 } way1_new_line [55:0] $end
$var wire 56 ~ way1_line [55:0] $end
$var wire 56 !" way0_new_line [55:0] $end
$var wire 56 "" way0_line [55:0] $end
$var wire 1 #" valid1 $end
$var wire 1 $" valid0 $end
$var wire 22 %" tag1 [21:0] $end
$var wire 22 &" tag0 [21:0] $end
$var wire 1 '" request_active $end
$var wire 1 (" lru_value $end
$var wire 1 )" lru_new_value $end
$var wire 56 *" fill_line [55:0] $end
$var wire 1 +" fill_cache $end
$var wire 32 ," evict_addr_way1 [31:0] $end
$var wire 32 -" evict_addr_way0 [31:0] $end
$var wire 1 ." dirty1 $end
$var wire 1 /" dirty0 $end
$var wire 32 0" data1 [31:0] $end
$var wire 32 1" data0 [31:0] $end
$var wire 22 2" compare_tag [21:0] $end
$var wire 8 3" compare_index [7:0] $end
$var wire 32 4" cache_resp_data [31:0] $end
$var parameter 2 5" ALLOCATE $end
$var parameter 2 6" FILL $end
$var parameter 2 7" IDLE $end
$var parameter 2 8" WRITE_BACK $end
$var reg 1 X cache_read_req $end
$var reg 32 9" cache_req_addr [31:0] $end
$var reg 32 :" cache_req_data [31:0] $end
$var reg 4 ;" cache_req_strb [3:0] $end
$var reg 1 R cache_write_req $end
$var reg 2 <" next_state [1:0] $end
$var reg 32 =" pending_address [31:0] $end
$var reg 1 >" pending_memread $end
$var reg 1 ?" pending_memwrite $end
$var reg 32 @" pending_write_data [31:0] $end
$var reg 32 A" read_data [31:0] $end
$var reg 2 B" state [1:0] $end
$scope module data_cache_inst $end
$var wire 1 & clk $end
$var wire 8 C" index [7:0] $end
$var wire 1 ' rst $end
$var wire 56 D" way0_line [55:0] $end
$var wire 56 E" way0_new_line [55:0] $end
$var wire 56 F" way1_line [55:0] $end
$var wire 56 G" way1_new_line [55:0] $end
$var wire 1 y write_way0 $end
$var wire 1 z write_way1 $end
$var integer 32 H" i [31:0] $end
$upscope $end
$scope module lru_memory_inst $end
$var wire 1 & clk $end
$var wire 8 I" index [7:0] $end
$var wire 1 )" lru_new_value $end
$var wire 1 (" lru_value $end
$var wire 1 p lru_write $end
$var wire 1 ' rst $end
$var integer 32 J" i [31:0] $end
$upscope $end
$upscope $end
$scope module interconnect_ctrl_inst $end
$var wire 32 K" cache_address [31:0] $end
$var wire 1 X cache_read_req $end
$var wire 32 L" cache_write_data [31:0] $end
$var wire 1 R cache_write_req $end
$var wire 4 M" cache_write_strb [3:0] $end
$var wire 1 & clk $end
$var wire 1 N master_read_addr_ready $end
$var wire 32 N" master_read_data [31:0] $end
$var wire 1 J master_read_data_valid $end
$var wire 2 O" master_read_resp [1:0] $end
$var wire 1 G master_write_addr_ready $end
$var wire 1 D master_write_data_ready $end
$var wire 2 P" master_write_resp [1:0] $end
$var wire 1 @ master_write_resp_valid $end
$var wire 1 ' rst $end
$var parameter 3 Q" IDLE $end
$var parameter 3 R" READ_ADDR $end
$var parameter 3 S" READ_DATA $end
$var parameter 3 T" WRITE $end
$var parameter 3 U" WRITE_RESP $end
$var reg 1 \ cache_busy $end
$var reg 32 V" cache_read_data [31:0] $end
$var reg 1 Y cache_read_done $end
$var reg 1 S cache_write_done $end
$var reg 32 W" master_read_addr [31:0] $end
$var reg 1 M master_read_addr_valid $end
$var reg 1 K master_read_data_ready $end
$var reg 32 X" master_write_addr [31:0] $end
$var reg 1 F master_write_addr_valid $end
$var reg 32 Y" master_write_data [31:0] $end
$var reg 1 C master_write_data_valid $end
$var reg 1 A master_write_resp_ready $end
$var reg 4 Z" master_write_strb [3:0] $end
$var reg 3 [" next_state [2:0] $end
$var reg 32 \" req_address [31:0] $end
$var reg 32 ]" req_write_data [31:0] $end
$var reg 4 ^" req_write_strb [3:0] $end
$var reg 3 _" state [2:0] $end
$upscope $end
$scope module memory_ctrl_inst $end
$var wire 1 & clk $end
$var wire 32 `" mem_read_addr [31:0] $end
$var wire 1 < mem_read_addr_valid $end
$var wire 1 : mem_read_data_ready $end
$var wire 32 a" mem_write_addr [31:0] $end
$var wire 1 5 mem_write_addr_valid $end
$var wire 32 b" mem_write_data [31:0] $end
$var wire 1 2 mem_write_data_valid $end
$var wire 1 0 mem_write_resp_ready $end
$var wire 4 c" mem_write_strb [3:0] $end
$var wire 1 ' rst $end
$var wire 1 - memory_busy $end
$var wire 32 d" mem_read_value [31:0] $end
$var parameter 3 e" IDLE $end
$var parameter 3 f" READ $end
$var parameter 3 g" READ_RESP $end
$var parameter 3 h" WRITE $end
$var parameter 3 i" WRITE_RESP $end
$var reg 1 j" MemRead $end
$var reg 1 k" MemWrite $end
$var reg 32 l" mem_address [31:0] $end
$var reg 1 = mem_read_addr_ready $end
$var reg 32 m" mem_read_data [31:0] $end
$var reg 1 9 mem_read_data_valid $end
$var reg 2 n" mem_read_resp [1:0] $end
$var reg 1 6 mem_write_addr_ready $end
$var reg 1 3 mem_write_data_ready $end
$var reg 2 o" mem_write_resp [1:0] $end
$var reg 1 / mem_write_resp_valid $end
$var reg 32 p" mem_write_value [31:0] $end
$var reg 3 q" next_state [2:0] $end
$var reg 32 r" read_buffer [31:0] $end
$var reg 32 s" req_address [31:0] $end
$var reg 32 t" req_write_data [31:0] $end
$var reg 4 u" req_write_strb [3:0] $end
$var reg 3 v" state [2:0] $end
$scope module data_mem_inst $end
$var wire 1 j" MemRead $end
$var wire 1 k" MemWrite $end
$var wire 32 w" address [31:0] $end
$var wire 1 & clk $end
$var wire 32 x" write_data [31:0] $end
$var reg 32 y" read_data [31:0] $end
$var integer 32 z" i [31:0] $end
$upscope $end
$upscope $end
$upscope $end
$upscope $end
$enddefinitions $end
$comment Show the parameter values. $end
$dumpall
b100 i"
b11 h"
b10 g"
b1 f"
b0 e"
b100 U"
b11 T"
b10 S"
b1 R"
b0 Q"
b1 8"
b0 7"
b11 6"
b10 5"
$end
#0
$dumpvars
b10000000000 z"
b0 y"
b0 x"
b0 w"
b0 v"
b0 u"
b0 t"
b0 s"
b0 r"
b0 q"
b0 p"
b0 o"
b0 n"
b0 m"
b0 l"
0k"
0j"
b0 d"
b0 c"
b0 b"
b0 a"
b0 `"
b0 _"
b0 ^"
b0 ]"
b0 \"
b0 ["
b0 Z"
b0 Y"
b0 X"
b0 W"
b0 V"
b0 P"
b0 O"
b0 N"
b0 M"
b0 L"
b0 K"
b100000000 J"
b0 I"
b100000000 H"
b0 G"
b0 F"
b0 E"
b0 D"
b0 C"
b0 B"
b0 A"
b0 @"
0?"
0>"
b0 ="
b0 <"
b0 ;"
b0 :"
b0 9"
b0 4"
b0 3"
b0 2"
b0 1"
b0 0"
0/"
0."
b0 -"
b0 ,"
0+"
b10000000000000000000000000000000000000000000000000000000 *"
1)"
0("
0'"
b0 &"
b0 %"
0$"
0#"
b0 ""
b0 !"
b0 ~
b0 }
b11000000000000000000000000000000000000000000000000000000 |
b11000000000000000000000000000000000000000000000000000000 {
0z
0y
0x
0w
0v
b0 u
1t
1s
0r
1q
0p
0o
0n
0m
0l
b0 k
b0 j
b0 i
b0 h
b0 g
b0 f
b0 e
b0 d
b0 c
b0 b
b0 a
b0 `
b0 _
b0 ^
b0 ]
0\
0[
0Z
0Y
0X
b0 W
b0 V
b0 U
b0 T
0S
0R
0Q
0P
b0 O
0N
0M
b0 L
0K
0J
b0 I
b0 H
0G
0F
b0 E
0D
0C
b0 B
0A
0@
b0 ?
b0 >
0=
0<
b0 ;
0:
09
b0 8
b0 7
06
05
b0 4
03
02
b0 1
00
0/
b0 .
0-
b0 ,
b0 +
0*
b0 )
b0 (
1'
0&
b0 %
0$
0#
b0 "
0!
$end
#5000
b100000000 J"
b100000000 H"
1&
#10000
0&
#15000
b100000000 H"
b100000000 J"
1&
#20000
0&
0'
#25000
1!
b10 <"
1Z
1'"
b1100100 -"
b1100100 ,"
b11001 3"
b11001 C"
b11001 I"
1$
b11000000000000000000000000000000000000000000000000010100 |
b11000000000000000000000000000000000000000000000000010100 {
b10100 (
b10100 +
b10100 u
b1100100 %
b1100100 )
b1100100 k
1&
#30000
0&
#35000
b1 ["
b11000000000000000000000000000000000000000000000000010100 *"
b1100100 W
b1100100 9"
b1100100 K"
1X
b10 B"
1?"
b10100 @"
b1100100 ="
1&
#40000
0&
#45000
1M
b1100100 O
b1100100 c
b1100100 W"
1\
b1100100 \"
b1 _"
1&
#50000
0&
#55000
b1 q"
1=
1<
b1100100 >
b1100100 g
b1100100 `"
1&
#60000
0&
#65000
b110010 d"
b110010 y"
b10 q"
1j"
b1100100 l"
b1100100 w"
0=
b10 ["
1M
b1100100 O
b1100100 c
b1100100 W"
b1100100 s"
1-
b1 v"
1N
1&
#70000
0&
#75000
b0 d"
b0 y"
1K
0M
b0 O
b0 c
b0 W"
19
b110010 ;
b110010 _
b110010 m"
0j"
b10 _"
0N
b110010 r"
b10 v"
1&
#80000
0&
#85000
b11 <"
1*
b0 ["
b110010 T
b110010 4"
b110010 V"
1Y
1K
b0 q"
b110010 ;
b110010 _
b110010 m"
19
1:
1J
b110010 L
b110010 d
b110010 N"
0<
b0 >
b0 g
b0 `"
1&
#90000
0&
#95000
b11000000000000000000000000000000000000000000000000010100 !"
b11000000000000000000000000000000000000000000000000010100 E"
1y
0*
b0 W
b0 9"
b0 K"
0X
b0 <"
1p
1n
b0 ["
0K
b0 T
b0 4"
b0 V"
0Y
0\
b0 ;
b0 _
b0 m"
09
1+"
b11 B"
b0 _"
0-
b0 v"
1&
#100000
0&
#105000
1r
0!
0Z
1v
0q
1[
1w
1y
b10100 "
b10100 ,
b10100 A"
0s
1Q
b10000000000000000000000000000000000000000000000000000000 *"
b0 <"
1p
0n
b10100 1"
1/"
1$"
0:
0J
b0 L
b0 d
b0 N"
0?"
0+"
b0 B"
1("
b11000000000000000000000000000000000000000000000000010100 ""
b11000000000000000000000000000000000000000000000000010100 D"
1&
#110000
0&
#115000
0p
0)"
0'"
0v
0y
b0 !"
b0 E"
0w
0$
1&
#120000
0&
#125000
1'"
1#
1&
#130000
0&
#135000
0'"
0#
1&
