RISCV_single/src/processor.vcd
$date
	Sat Jun 27 19:03:47 2026
$end
$version
	Icarus Verilog
$end
$timescale
	1ps
$end
$scope module tb $end
$var reg 1 ! clk $end
$var reg 1 " rst $end
$var integer 32 # i [31:0] $end
$scope module cpu $end
$var wire 1 $ bp_update_enable $end
$var wire 1 ! clk $end
$var wire 1 % ex_actual_taken $end
$var wire 32 & ex_branch_target [31:0] $end
$var wire 1 ' flush $end
$var wire 1 ( global_stall $end
$var wire 1 " rst $end
$var wire 1 ) zero_flag $end
$var wire 32 * wb_data [31:0] $end
$var wire 5 + rs2 [4:0] $end
$var wire 5 , rs1 [4:0] $end
$var wire 32 - recovery_pc [31:0] $end
$var wire 32 . read_data2 [31:0] $end
$var wire 32 / read_data1 [31:0] $end
$var wire 5 0 rd [4:0] $end
$var wire 32 1 pc_plus_4 [31:0] $end
$var wire 32 2 operand_b [31:0] $end
$var wire 32 3 operand_a [31:0] $end
$var wire 7 4 opcode [6:0] $end
$var wire 32 5 next_pc [31:0] $end
$var wire 32 6 memory_read_data [31:0] $end
$var wire 5 7 mem_wb_rd [4:0] $end
$var wire 32 8 mem_wb_pc_plus_4 [31:0] $end
$var wire 32 9 mem_wb_memory_data [31:0] $end
$var wire 32 : mem_wb_alu_result [31:0] $end
$var wire 1 ; mem_wb_RegWrite $end
$var wire 1 < mem_wb_MemToReg $end
$var wire 1 = mem_wb_Jump $end
$var wire 32 > instr_code [31:0] $end
$var wire 32 ? immediate [31:0] $end
$var wire 5 @ if_id_rs2 [4:0] $end
$var wire 5 A if_id_rs1 [4:0] $end
$var wire 1 B if_id_prediction_taken $end
$var wire 32 C if_id_predicted_target [31:0] $end
$var wire 32 D if_id_pc [31:0] $end
$var wire 32 E if_id_instr [31:0] $end
$var wire 5 F id_ex_rs2 [4:0] $end
$var wire 5 G id_ex_rs1 [4:0] $end
$var wire 32 H id_ex_read_data2 [31:0] $end
$var wire 32 I id_ex_read_data1 [31:0] $end
$var wire 5 J id_ex_rd [4:0] $end
$var wire 1 K id_ex_prediction_taken $end
$var wire 32 L id_ex_predicted_target [31:0] $end
$var wire 32 M id_ex_pc [31:0] $end
$var wire 32 N id_ex_imm [31:0] $end
$var wire 7 O id_ex_funct7 [6:0] $end
$var wire 3 P id_ex_funct3 [2:0] $end
$var wire 1 Q id_ex_RegWrite $end
$var wire 1 R id_ex_MemWrite $end
$var wire 1 S id_ex_MemToReg $end
$var wire 1 T id_ex_MemRead $end
$var wire 1 U id_ex_Jump $end
$var wire 1 V id_ex_Jalr $end
$var wire 3 W id_ex_BranchType [2:0] $end
$var wire 1 X id_ex_ALUSrcA $end
$var wire 1 Y id_ex_ALUSrc $end
$var wire 4 Z id_ex_ALUOp [3:0] $end
$var wire 1 [ hazard_stall $end
$var wire 7 \ funct7 [6:0] $end
$var wire 3 ] funct3 [2:0] $end
$var wire 32 ^ forward_b_data [31:0] $end
$var wire 32 _ forward_a_data [31:0] $end
$var wire 32 ` ex_rs1_plus_imm [31:0] $end
$var wire 32 a ex_pc_plus_imm [31:0] $end
$var wire 32 b ex_mem_write_data [31:0] $end
$var wire 5 c ex_mem_rd [4:0] $end
$var wire 32 d ex_mem_pc_plus_4 [31:0] $end
$var wire 32 e ex_mem_alu_result [31:0] $end
$var wire 1 f ex_mem_RegWrite $end
$var wire 1 g ex_mem_MemWrite $end
$var wire 1 h ex_mem_MemToReg $end
$var wire 1 i ex_mem_MemRead $end
$var wire 1 j ex_mem_Jump $end
$var wire 32 k ex_jump_target [31:0] $end
$var wire 1 l ex_branch_taken $end
$var wire 32 m ex_actual_target [31:0] $end
$var wire 32 n current_pc [31:0] $end
$var wire 1 o cache_stall $end
$var wire 32 p cache_read_data [31:0] $end
$var wire 32 q cache_mem_write_data [31:0] $end
$var wire 1 r cache_mem_write $end
$var wire 1 s cache_mem_read $end
$var wire 32 t cache_mem_address [31:0] $end
$var wire 1 u cache_hit $end
$var wire 1 v bp_prediction_taken $end
$var wire 1 w bp_prediction_flush $end
$var wire 2 x bp_prediction [1:0] $end
$var wire 32 y bp_predicted_target [31:0] $end
$var wire 1 z bp_btb_hit $end
$var wire 32 { alu_result [31:0] $end
$var wire 4 | alu_control_res [3:0] $end
$var wire 1 } RegWrite $end
$var wire 1 ~ MemWrite $end
$var wire 1 !" MemToReg $end
$var wire 1 "" MemRead $end
$var wire 1 #" Jump $end
$var wire 1 $" Jalr $end
$var wire 2 %" ForwardB [1:0] $end
$var wire 2 &" ForwardA [1:0] $end
$var wire 3 '" BranchType [2:0] $end
$var wire 1 (" ALUSrcA $end
$var wire 1 )" ALUSrc $end
$var wire 4 *" ALUOp [3:0] $end
$scope module alu_control_inst $end
$var wire 7 +" funct7 [6:0] $end
$var wire 3 ," funct3 [2:0] $end
$var wire 4 -" ALUOp [3:0] $end
$var reg 4 ." alu_control_res [3:0] $end
$upscope $end
$scope module alu_inst $end
$var wire 4 /" alu_control [3:0] $end
$var wire 32 0" operand_a [31:0] $end
$var wire 32 1" operand_b [31:0] $end
$var wire 1 ) zero_flag $end
$var reg 32 2" alu_result [31:0] $end
$upscope $end
$scope module bp_inst $end
$var wire 1 % actual_taken $end
$var wire 32 3" actual_target [31:0] $end
$var wire 1 ! clk $end
$var wire 2 4" current_state [1:0] $end
$var wire 2 5" prediction [1:0] $end
$var wire 1 " rst $end
$var wire 1 $ update_enable $end
$var wire 1 6" valid $end
$var wire 1 v prediction_taken $end
$var wire 32 7" next_pc [31:0] $end
$var wire 8 8" index [7:0] $end
$var wire 1 K id_ex_prediction_taken $end
$var wire 32 9" id_ex_predicted_target [31:0] $end
$var wire 32 :" ex_pc [31:0] $end
$var wire 8 ;" ex_index [7:0] $end
$var parameter 2 <" SNT $end
$var parameter 2 =" ST $end
$var parameter 2 >" WNT $end
$var parameter 2 ?" WT $end
$var reg 1 z btb_hit $end
$var reg 32 @" predicted_target [31:0] $end
$var reg 1 w prediction_flush $end
$var integer 32 A" i [31:0] $end
$upscope $end
$scope module cache_inst $end
$var wire 1 u cache_hit $end
$var wire 1 o cache_stall $end
$var wire 1 ! clk $end
$var wire 1 B" dirty_evict_way0 $end
$var wire 1 C" dirty_evict_way1 $end
$var wire 1 D" hit_way0 $end
$var wire 1 E" hit_way1 $end
$var wire 1 F" lru_write $end
$var wire 1 G" miss $end
$var wire 1 H" replace_way0 $end
$var wire 1 I" replace_way1 $end
$var wire 1 " rst $end
$var wire 1 J" way0_invalid $end
$var wire 1 K" way1_invalid $end
$var wire 1 L" write_hit $end
$var wire 1 M" write_hit_way0 $end
$var wire 1 N" write_hit_way1 $end
$var wire 1 O" write_miss $end
$var wire 1 P" write_way0 $end
$var wire 1 Q" write_way1 $end
$var wire 56 R" write_hit_line1 [55:0] $end
$var wire 56 S" write_hit_line0 [55:0] $end
$var wire 32 T" write_data [31:0] $end
$var wire 56 U" way1_new_line [55:0] $end
$var wire 56 V" way1_line [55:0] $end
$var wire 56 W" way0_new_line [55:0] $end
$var wire 56 X" way0_line [55:0] $end
$var wire 1 Y" valid1 $end
$var wire 1 Z" valid0 $end
$var wire 22 [" tag1 [21:0] $end
$var wire 22 \" tag0 [21:0] $end
$var wire 22 ]" tag [21:0] $end
$var wire 2 ^" offset [1:0] $end
$var wire 32 _" mem_read_data [31:0] $end
$var wire 1 `" lru_value $end
$var wire 1 a" lru_new_value $end
$var wire 8 b" index [7:0] $end
$var wire 56 c" fill_line [55:0] $end
$var wire 1 d" fill_cache $end
$var wire 32 e" evict_addr_way1 [31:0] $end
$var wire 32 f" evict_addr_way0 [31:0] $end
$var wire 1 g" dirty1 $end
$var wire 1 h" dirty0 $end
$var wire 32 i" data1 [31:0] $end
$var wire 32 j" data0 [31:0] $end
$var wire 32 k" address [31:0] $end
$var wire 22 l" active_tag [21:0] $end
$var wire 8 m" active_index [7:0] $end
$var wire 1 g MemWrite $end
$var wire 1 i MemRead $end
$var parameter 2 n" ALLOCATE $end
$var parameter 2 o" FILL $end
$var parameter 2 p" IDLE $end
$var parameter 2 q" WRITE_BACK $end
$var reg 32 r" mem_address [31:0] $end
$var reg 1 s mem_read $end
$var reg 1 r mem_write $end
$var reg 32 s" mem_write_data [31:0] $end
$var reg 2 t" next_state [1:0] $end
$var reg 32 u" pending_address [31:0] $end
$var reg 1 v" pending_memread $end
$var reg 1 w" pending_memwrite $end
$var reg 32 x" pending_write_data [31:0] $end
$var reg 32 y" read_data [31:0] $end
$var reg 2 z" state [1:0] $end
$scope module data_cache_inst $end
$var wire 1 ! clk $end
$var wire 8 {" index [7:0] $end
$var wire 1 " rst $end
$var wire 56 |" way0_line [55:0] $end
$var wire 56 }" way0_new_line [55:0] $end
$var wire 56 ~" way1_line [55:0] $end
$var wire 56 !# way1_new_line [55:0] $end
$var wire 1 P" write_way0 $end
$var wire 1 Q" write_way1 $end
$var integer 32 "# i [31:0] $end
$upscope $end
$scope module lru_memory_inst $end
$var wire 1 ! clk $end
$var wire 8 ## index [7:0] $end
$var wire 1 a" lru_new_value $end
$var wire 1 `" lru_value $end
$var wire 1 F" lru_write $end
$var wire 1 " rst $end
$var integer 32 $# i [31:0] $end
$upscope $end
$upscope $end
$scope module control_unit_inst $end
$var wire 7 %# opcode [6:0] $end
$var wire 3 &# funct3 [2:0] $end
$var reg 4 '# ALUOp [3:0] $end
$var reg 1 )" ALUSrc $end
$var reg 1 (" ALUSrcA $end
$var reg 3 (# BranchType [2:0] $end
$var reg 1 $" Jalr $end
$var reg 1 #" Jump $end
$var reg 1 "" MemRead $end
$var reg 1 !" MemToReg $end
$var reg 1 ~ MemWrite $end
$var reg 1 } RegWrite $end
$upscope $end
$scope module data_mem_inst $end
$var wire 1 s MemRead $end
$var wire 1 r MemWrite $end
$var wire 32 )# alu_result [31:0] $end
$var wire 1 ! clk $end
$var wire 32 *# write_data [31:0] $end
$var reg 32 +# read_data [31:0] $end
$var integer 32 ,# i [31:0] $end
$upscope $end
$scope module decode_inst $end
$var wire 5 -# rs2 [4:0] $end
$var wire 5 .# rs1 [4:0] $end
$var wire 5 /# rd [4:0] $end
$var wire 7 0# opcode [6:0] $end
$var wire 32 1# instr [31:0] $end
$var wire 7 2# funct7 [6:0] $end
$var wire 3 3# funct3 [2:0] $end
$upscope $end
$scope module ex_mem_inst $end
$var wire 32 4# alu_result_in [31:0] $end
$var wire 1 ! clk $end
$var wire 32 5# pc_plus_4_in [31:0] $end
$var wire 1 " rst $end
$var wire 1 o stall $end
$var wire 32 6# write_data_in [31:0] $end
$var wire 5 7# rd_in [4:0] $end
$var wire 1 Q RegWrite_in $end
$var wire 1 R MemWrite_in $end
$var wire 1 S MemToReg_in $end
$var wire 1 T MemRead_in $end
$var wire 1 U Jump_in $end
$var reg 1 j Jump_out $end
$var reg 1 i MemRead_out $end
$var reg 1 h MemToReg_out $end
$var reg 1 g MemWrite_out $end
$var reg 1 f RegWrite_out $end
$var reg 32 8# alu_result_out [31:0] $end
$var reg 32 9# pc_plus_4_out [31:0] $end
$var reg 5 :# rd_out [4:0] $end
$var reg 32 ;# write_data_out [31:0] $end
$upscope $end
$scope module forwarding_unit_inst $end
$var wire 1 f ex_mem_RegWrite $end
$var wire 5 <# ex_mem_rd [4:0] $end
$var wire 5 =# mem_wb_rd [4:0] $end
$var wire 1 ; mem_wb_RegWrite $end
$var wire 5 ># id_ex_rs2 [4:0] $end
$var wire 5 ?# id_ex_rs1 [4:0] $end
$var reg 2 @# ForwardA [1:0] $end
$var reg 2 A# ForwardB [1:0] $end
$upscope $end
$scope module hazard_unit_inst $end
$var wire 5 B# if_id_rs1 [4:0] $end
$var wire 5 C# if_id_rs2 [4:0] $end
$var wire 1 [ stall $end
$var wire 5 D# id_ex_rd [4:0] $end
$var wire 1 T id_ex_MemRead $end
$upscope $end
$scope module id_ex_inst $end
$var wire 4 E# ALUOp_in [3:0] $end
$var wire 1 (" ALUSrcA_in $end
$var wire 1 )" ALUSrc_in $end
$var wire 3 F# BranchType_in [2:0] $end
$var wire 1 $" Jalr_in $end
$var wire 1 #" Jump_in $end
$var wire 1 "" MemRead_in $end
$var wire 1 !" MemToReg_in $end
$var wire 1 ~ MemWrite_in $end
$var wire 1 } RegWrite_in $end
$var wire 1 o cache_stall $end
$var wire 1 ! clk $end
$var wire 1 ' flush $end
$var wire 3 G# funct3_in [2:0] $end
$var wire 7 H# funct7_in [6:0] $end
$var wire 5 I# rd_in [4:0] $end
$var wire 5 J# rs1_in [4:0] $end
$var wire 5 K# rs2_in [4:0] $end
$var wire 1 " rst $end
$var wire 1 [ stall $end
$var wire 32 L# read_data2_in [31:0] $end
$var wire 32 M# read_data1_in [31:0] $end
$var wire 1 B prediction_taken_in $end
$var wire 32 N# predicted_target_in [31:0] $end
$var wire 32 O# pc_in [31:0] $end
$var wire 32 P# imm_in [31:0] $end
$var reg 4 Q# ALUOp_out [3:0] $end
$var reg 1 X ALUSrcA_out $end
$var reg 1 Y ALUSrc_out $end
$var reg 3 R# BranchType_out [2:0] $end
$var reg 1 V Jalr_out $end
$var reg 1 U Jump_out $end
$var reg 1 T MemRead_out $end
$var reg 1 S MemToReg_out $end
$var reg 1 R MemWrite_out $end
$var reg 1 Q RegWrite_out $end
$var reg 3 S# funct3_out [2:0] $end
$var reg 7 T# funct7_out [6:0] $end
$var reg 32 U# imm_out [31:0] $end
$var reg 32 V# pc_out [31:0] $end
$var reg 32 W# predicted_target_out [31:0] $end
$var reg 1 K prediction_taken_out $end
$var reg 5 X# rd_out [4:0] $end
$var reg 32 Y# read_data1_out [31:0] $end
$var reg 32 Z# read_data2_out [31:0] $end
$var reg 5 [# rs1_out [4:0] $end
$var reg 5 \# rs2_out [4:0] $end
$upscope $end
$scope module if_id_inst $end
$var wire 1 o cache_stall $end
$var wire 1 ! clk $end
$var wire 1 ' flush $end
$var wire 32 ]# predicted_target_in [31:0] $end
$var wire 1 v prediction_taken_in $end
$var wire 1 " rst $end
$var wire 1 [ stall $end
$var wire 1 ^# pred_flush $end
$var wire 32 _# pc_in [31:0] $end
$var wire 32 `# instr_in [31:0] $end
$var reg 32 a# instr_out [31:0] $end
$var reg 32 b# pc_out [31:0] $end
$var reg 32 c# predicted_target_out [31:0] $end
$var reg 1 B prediction_taken_out $end
$upscope $end
$scope module imm_gen_inst $end
$var wire 32 d# instruction [31:0] $end
$var wire 7 e# opcode [6:0] $end
$var reg 32 f# immediate [31:0] $end
$upscope $end
$scope module instr_mem_inst $end
$var wire 32 g# pc [31:0] $end
$var wire 32 h# instr_code [31:0] $end
$upscope $end
$scope module mem_wb_inst $end
$var wire 1 j Jump_in $end
$var wire 1 h MemToReg_in $end
$var wire 1 f RegWrite_in $end
$var wire 32 i# alu_result_in [31:0] $end
$var wire 1 ! clk $end
$var wire 32 j# mem_data_in [31:0] $end
$var wire 32 k# pc_plus_4_in [31:0] $end
$var wire 5 l# rd_in [4:0] $end
$var wire 1 " rst $end
$var wire 1 o stall $end
$var reg 1 = Jump_out $end
$var reg 1 < MemToReg_out $end
$var reg 1 ; RegWrite_out $end
$var reg 32 m# alu_result_out [31:0] $end
$var reg 32 n# mem_data_out [31:0] $end
$var reg 32 o# pc_plus_4_out [31:0] $end
$var reg 5 p# rd_out [4:0] $end
$upscope $end
$scope module pc_inst $end
$var wire 1 ! clk $end
$var wire 32 q# next_pc [31:0] $end
$var wire 1 " rst $end
$var wire 1 ( stall $end
$var reg 32 r# current_pc [31:0] $end
$upscope $end
$scope module reg_file_inst $end
$var wire 1 ; RegWrite $end
$var wire 1 ! clk $end
$var wire 5 s# rd [4:0] $end
$var wire 5 t# rs1 [4:0] $end
$var wire 5 u# rs2 [4:0] $end
$var wire 1 " rst $end
$var wire 32 v# write_data [31:0] $end
$var wire 32 w# read_data2 [31:0] $end
$var wire 32 x# read_data1 [31:0] $end
$var integer 32 y# i [31:0] $end
$upscope $end
$upscope $end
$upscope $end
$scope module tb $end
$scope module cpu $end
$scope module reg_file_inst $end
$var reg 32 z# \registers[0] [31:0] $end
$upscope $end
$upscope $end
$upscope $end
$scope module tb $end
$scope module cpu $end
$scope module reg_file_inst $end
$var reg 32 {# \registers[1] [31:0] $end
$upscope $end
$upscope $end
$upscope $end
$scope module tb $end
$scope module cpu $end
$scope module reg_file_inst $end
$var reg 32 |# \registers[2] [31:0] $end
$upscope $end
$upscope $end
$upscope $end
$scope module tb $end
$scope module cpu $end
$scope module reg_file_inst $end
$var reg 32 }# \registers[3] [31:0] $end
$upscope $end
$upscope $end
$upscope $end
$scope module tb $end
$scope module cpu $end
$scope module reg_file_inst $end
$var reg 32 ~# \registers[4] [31:0] $end
$upscope $end
$upscope $end
$upscope $end
$scope module tb $end
$scope module cpu $end
$scope module reg_file_inst $end
$var reg 32 !$ \registers[5] [31:0] $end
$upscope $end
$upscope $end
$upscope $end
$scope module tb $end
$scope module cpu $end
$scope module reg_file_inst $end
$var reg 32 "$ \registers[6] [31:0] $end
$upscope $end
$upscope $end
$upscope $end
$scope module tb $end
$scope module cpu $end
$scope module reg_file_inst $end
$var reg 32 #$ \registers[7] [31:0] $end
$upscope $end
$upscope $end
$upscope $end
$enddefinitions $end
$comment Show the parameter values. $end
$dumpall
b1 q"
b0 p"
b11 o"
b10 n"
b10 ?"
b1 >"
b11 ="
b0 <"
$end
#0
$dumpvars
b0 #$
b0 "$
b0 !$
b0 ~#
b0 }#
b0 |#
b0 {#
b0 z#
b100000 y#
b0 x#
b0 w#
b0 v#
b0 u#
b0 t#
b0 s#
b0 r#
b100 q#
b0 p#
b0 o#
b0 n#
b0 m#
b0 l#
b0 k#
b0 j#
b0 i#
b10100000000000010010011 h#
b0 g#
b0 f#
b0 e#
b0 d#
b0 c#
b0 b#
b0 a#
b10100000000000010010011 `#
b0 _#
1^#
b100 ]#
b0 \#
b0 [#
b0 Z#
b0 Y#
b0 X#
b0 W#
b0 V#
b0 U#
b0 T#
b0 S#
b0 R#
b0 Q#
b0 P#
b0 O#
b0 N#
b0 M#
b0 L#
b0 K#
b0 J#
b0 I#
b0 H#
b0 G#
b0 F#
b0 E#
b0 D#
b0 C#
b0 B#
b0 A#
b0 @#
b0 ?#
b0 >#
b0 =#
b0 <#
b0 ;#
b0 :#
b0 9#
b0 8#
b0 7#
b0 6#
b100 5#
b0 4#
b0 3#
b0 2#
b0 1#
b0 0#
b0 /#
b0 .#
b0 -#
b10000000000 ,#
b0 +#
b0 *#
b0 )#
b0 (#
b0 '#
b0 &#
b0 %#
b100000000 $#
b0 ##
b100000000 "#
b0 !#
b0 ~"
b0 }"
b0 |"
b0 {"
b0 z"
b0 y"
b0 x"
0w"
0v"
b0 u"
b0 t"
b0 s"
b0 r"
b0 m"
b0 l"
b0 k"
b0 j"
b0 i"
0h"
0g"
b0 f"
b0 e"
0d"
b10000000000000000000000000000000000000000000000000000000 c"
b0 b"
1a"
0`"
b0 _"
b0 ^"
b0 ]"
b0 \"
b0 ["
0Z"
0Y"
b0 X"
b0 W"
b0 V"
b0 U"
b0 T"
b11000000000000000000000000000000000000000000000000000000 S"
b11000000000000000000000000000000000000000000000000000000 R"
0Q"
0P"
0O"
0N"
0M"
0L"
1K"
1J"
0I"
1H"
0G"
0F"
0E"
0D"
0C"
0B"
b100000000 A"
b100 @"
b0 ;"
b0 :"
b0 9"
b0 8"
b0 7"
06"
b0 5"
b0 4"
b0 3"
b0 2"
b0 1"
b0 0"
b0 /"
b0 ."
b0 -"
b0 ,"
b0 +"
b0 *"
0)"
0("
b0 '"
b0 &"
b0 %"
0$"
0#"
0""
0!"
0~
0}
b0 |
b0 {
0z
b100 y
b0 x
0w
0v
0u
b0 t
0s
0r
b0 q
b0 p
0o
b0 n
b0 m
0l
b0 k
0j
0i
0h
0g
0f
b0 e
b0 d
b0 c
b0 b
b0 a
b0 `
b0 _
b0 ^
b0 ]
b0 \
0[
b0 Z
0Y
0X
b0 W
0V
0U
0T
0S
0R
0Q
b0 P
b0 O
b0 N
b0 M
b0 L
0K
b0 J
b0 I
b0 H
b0 G
b0 F
b0 E
b0 D
b0 C
0B
b0 A
b0 @
b0 ?
b10100000000000010010011 >
0=
0<
0;
b0 :
b0 9
b0 8
b0 7
b0 6
b100 5
b0 4
b0 3
b0 2
b100 1
b0 0
b0 /
b0 .
b100 -
b0 ,
b0 +
b0 *
1)
0(
0'
b0 &
0%
0$
b1000 #
1"
0!
$end
#5000
b0 #$
b0 "$
b0 !$
b0 ~#
b0 }#
b0 |#
b0 {#
b0 z#
b100000000 $#
b100000000 "#
b100000 y#
b100000000 A"
1!
#10000
0!
#15000
b0 #$
b0 "$
b0 !$
b0 ~#
b0 }#
b0 |#
b0 {#
b0 z#
b100000000 A"
b100000 y#
b100000000 "#
b100000000 $#
1!
#20000
0!
0"
#25000
b101 ?
b101 P#
b101 f#
b100 *"
b100 '#
b100 E#
1)"
1}
b1000 5
b1000 q#
b10011 e#
b101 +
b101 -#
b101 K#
b101 u#
b1 0
b1 /#
b1 I#
b10011 4
b10011 %#
b10011 0#
b101 @
b101 C#
b1 8"
b1000 y
b1000 @"
b1000 ]#
b100 d
b100 9#
b100 k#
b100 C
b100 N#
b100 c#
b10100000000000010010011 E
b10100000000000010010011 1#
b10100000000000010010011 a#
b10100000000000010010011 d#
b100001000010001100011 >
b100001000010001100011 `#
b100001000010001100011 h#
b1000 1
b100 n
b100 7"
b100 _#
b100 g#
b100 r#
1!
#30000
0!
#35000
b1100 5
b1100 q#
1^#
b1 '"
b1 (#
b1 F#
b10 *"
b10 '#
b10 E#
0)"
0}
0)
b101 {
b101 2"
b101 4#
b10 8"
b1100 y
b1100 @"
b1100 ]#
b1100011 e#
b1 +
b1 -#
b1 K#
b1 u#
b1 ,
b1 .#
b1 J#
b1 t#
b1000 0
b1000 /#
b1000 I#
b1100011 4
b1100011 %#
b1100011 0#
b1 @
b1 C#
b1 A
b1 B#
b1000 ?
b1000 P#
b1000 f#
b101 2
b101 1"
b101 k
b101 m
b101 3"
b110111100000000000100010011 >
b110111100000000000100010011 `#
b110111100000000000100010011 h#
b1100 1
b1000 n
b1000 7"
b1000 _#
b1000 g#
b1000 r#
b1000 C
b1000 N#
b1000 c#
b100001000010001100011 E
b100001000010001100011 1#
b100001000010001100011 a#
b100001000010001100011 d#
b100 D
b100 O#
b100 b#
b100 L
b100 9"
b100 W#
b100 Z
b100 -"
b100 Q#
1Y
1Q
b1 J
b1 7#
b1 D#
b1 X#
b101 F
b101 >#
b101 \#
b101 `
b101 &
b101 a
b101 N
b101 U#
b100 8
b100 o#
1!
#40000
0!
#45000
1'
1w
1%
b101 3
b101 0"
1l
b100 f"
b100 e"
b1 m"
b1 {"
b1 ##
1$
b101 ^
b101 6#
b101 _
1)
b0 {
b0 2"
b0 4#
1)"
1}
b100 *"
b100 '#
b100 E#
b0 '"
b0 (#
b0 F#
b1100 5
b1100 q#
b1 ^"
b1 b"
b1 |
b1 ."
b1 /"
b10 %"
b10 A#
b10 &"
b10 @#
b101 2
b101 1"
b1 ;"
b1100 -
b1100 k
b1100 m
b1100 3"
b10011 e#
b11 \
b11 2#
b11 H#
b1111 +
b1111 -#
b1111 K#
b1111 u#
b0 ,
b0 .#
b0 J#
b0 t#
b10 0
b10 /#
b10 I#
b10011 4
b10011 %#
b10011 0#
b1111 @
b1111 C#
b0 A
b0 B#
b1101111 ?
b1101111 P#
b1101111 f#
b11 8"
b10000 y
b10000 @"
b10000 ]#
1f
b1 c
b1 :#
b1 <#
b1 l#
b101 e
b101 k"
b101 8#
b101 i#
b1000 L
b1000 9"
b1000 W#
b10 Z
b10 -"
b10 Q#
b1 W
b1 R#
0Y
0Q
b1000 J
b1000 7#
b1000 D#
b1000 X#
b1 F
b1 >#
b1 \#
b1 G
b1 ?#
b1 [#
b1101 `
b1000 N
b1000 U#
b1000 5#
b1100 &
b1100 a
b100 M
b100 :"
b100 V#
b1100 C
b1100 N#
b1100 c#
b110111100000000000100010011 E
b110111100000000000100010011 1#
b110111100000000000100010011 a#
b110111100000000000100010011 d#
b1000 D
b1000 O#
b1000 b#
b1101111000000000000110010011 >
b1101111000000000000110010011 `#
b1101111000000000000110010011 h#
b10000 1
b1100 n
b1100 7"
b1100 _#
b1100 g#
b1100 r#
1!
#50000
0!
#55000
0%
b0 2
b0 1"
b0 3
b0 0"
b0 *"
b0 '#
b0 E#
0)"
0}
b10000 5
b10000 q#
1)
b0 {
b0 2"
b0 4#
0$
b100 -
b0 f"
b0 e"
b0 m"
b0 {"
b0 ##
b0 ^
b0 6#
b0 _
b101 *
b101 v#
b0 e#
b0 \
b0 2#
b0 H#
b0 +
b0 -#
b0 K#
b0 u#
b0 0
b0 /#
b0 I#
b0 4
b0 %#
b0 0#
b0 @
b0 C#
b0 ?
b0 P#
b0 f#
0'
0w
b0 |
b0 ."
b0 /"
0l
b0 ;"
b0 k
b0 m
b0 3"
b0 ^"
b0 b"
b0 %"
b0 A#
b0 &"
b0 @#
b0 4"
b0 C
b0 N#
b0 c#
b0 E
b0 1#
b0 a#
b0 d#
b0 D
b0 O#
b0 b#
b0 L
b0 9"
b0 W#
b0 Z
b0 -"
b0 Q#
b0 W
b0 R#
b0 J
b0 7#
b0 D#
b0 X#
b0 F
b0 >#
b0 \#
b0 G
b0 ?#
b0 [#
b0 `
b0 N
b0 U#
b100 5#
b0 &
b0 a
b0 M
b0 :"
b0 V#
b1000 d
b1000 9#
b1000 k#
0f
b1000 c
b1000 :#
b1000 <#
b1000 l#
b11000000000000000000000000000000000000000000000000000101 R"
b11000000000000000000000000000000000000000000000000000101 S"
b101 b
b101 T"
b101 ;#
b0 e
b0 k"
b0 8#
b0 i#
1;
b1 7
b1 =#
b1 p#
b1 s#
b101 :
b101 m#
1!
#60000
0!
#65000
b0 *
b0 v#
b11011110 ?
b11011110 P#
b11011110 f#
b100 *"
b100 '#
b100 E#
1)"
1}
b10100 5
b10100 q#
b10011 e#
b110 \
b110 2#
b110 H#
b11110 +
b11110 -#
b11110 K#
b11110 u#
b11 0
b11 /#
b11 I#
b10011 4
b10011 %#
b10011 0#
b11110 @
b11110 C#
b100 8"
b10100 y
b10100 @"
b10100 ]#
b1000 8
b1000 o#
0;
b1000 7
b1000 =#
b1000 p#
b1000 s#
b0 :
b0 m#
b100 d
b100 9#
b100 k#
b0 c
b0 :#
b0 <#
b0 l#
b11000000000000000000000000000000000000000000000000000000 R"
b11000000000000000000000000000000000000000000000000000000 S"
b0 b
b0 T"
b0 ;#
b101 {#
b10000 C
b10000 N#
b10000 c#
b1101111000000000000110010011 E
b1101111000000000000110010011 1#
b1101111000000000000110010011 a#
b1101111000000000000110010011 d#
b1100 D
b1100 O#
b1100 b#
b100001000010001100011 >
b100001000010001100011 `#
b100001000010001100011 h#
b10100 1
b10000 n
b10000 7"
b10000 _#
b10000 g#
b10000 r#
1!
#70000
0!
#75000
b11000 5
b11000 q#
1^#
b101 .
b101 L#
b101 w#
b101 /
b101 M#
b101 x#
b1 '"
b1 (#
b1 F#
b10 *"
b10 '#
b10 E#
0)"
0}
0)
b11011110 {
b11011110 2"
b11011110 4#
b101 8"
b11000 y
b11000 @"
b11000 ]#
b1100011 e#
b0 \
b0 2#
b0 H#
b1 +
b1 -#
b1 K#
b1 u#
b1 ,
b1 .#
b1 J#
b1 t#
b1000 0
b1000 /#
b1000 I#
b1100011 4
b1100011 %#
b1100011 0#
b1 @
b1 C#
b1 A
b1 B#
b1000 ?
b1000 P#
b1000 f#
b11011110 2
b11011110 1"
b11 ;"
b10000 -
b11101010 k
b11101010 m
b11101010 3"
b110111100000000001000010011 >
b110111100000000001000010011 `#
b110111100000000001000010011 h#
b11000 1
b10100 n
b10100 7"
b10100 _#
b10100 g#
b10100 r#
b10100 C
b10100 N#
b10100 c#
b100001000010001100011 E
b100001000010001100011 1#
b100001000010001100011 a#
b100001000010001100011 d#
b10000 D
b10000 O#
b10000 b#
b10000 L
b10000 9"
b10000 W#
b100 Z
b100 -"
b100 Q#
1Y
1Q
b110 O
b110 +"
b110 T#
b11 J
b11 7#
b11 D#
b11 X#
b11110 F
b11110 >#
b11110 \#
b11011110 `
b11011110 N
b11011110 U#
b10000 5#
b11101010 &
b11101010 a
b1100 M
b1100 :"
b1100 V#
b100 8
b100 o#
b0 7
b0 =#
b0 p#
b0 s#
1!
#80000
0!
