RISCV_single/src/processor_pipeline.vcd
$date
	Mon Jul 06 19:23:03 2026
$end
$version
	Icarus Verilog
$end
$timescale
	1ps
$end
$scope module tb $end
$var wire 32 ! mem_write_data [31:0] $end
$var wire 32 " mem_address [31:0] $end
$var wire 1 # MemWrite $end
$var wire 1 $ MemRead $end
$var reg 1 % clk $end
$var reg 32 & mem_read_data [31:0] $end
$var reg 1 ' mem_stall $end
$var reg 1 ( rst $end
$scope module cpu $end
$var wire 1 $ MemRead $end
$var wire 1 # MemWrite $end
$var wire 1 ) bp_update_enable $end
$var wire 1 % clk $end
$var wire 1 * ex_actual_taken $end
$var wire 32 + ex_branch_target [31:0] $end
$var wire 1 , flush $end
$var wire 1 - global_stall $end
$var wire 32 . mem_address [31:0] $end
$var wire 32 / mem_read_data [31:0] $end
$var wire 1 ' mem_stall $end
$var wire 32 0 mem_write_data [31:0] $end
$var wire 1 ( rst $end
$var wire 1 1 zero_flag $end
$var wire 32 2 wb_data [31:0] $end
$var wire 5 3 rs2 [4:0] $end
$var wire 5 4 rs1 [4:0] $end
$var wire 32 5 recovery_pc [31:0] $end
$var wire 32 6 read_data2 [31:0] $end
$var wire 32 7 read_data1 [31:0] $end
$var wire 5 8 rd [4:0] $end
$var wire 32 9 pc_increment [31:0] $end
$var wire 32 : operand_b [31:0] $end
$var wire 32 ; operand_a [31:0] $end
$var wire 7 < opcode [6:0] $end
$var wire 32 = next_pc [31:0] $end
$var wire 5 > mem_wb_rd [4:0] $end
$var wire 32 ? mem_wb_pc_plus_4 [31:0] $end
$var wire 32 @ mem_wb_memory_data [31:0] $end
$var wire 32 A mem_wb_alu_result [31:0] $end
$var wire 1 B mem_wb_RegWrite $end
$var wire 1 C mem_wb_MemToReg $end
$var wire 1 D mem_wb_Jump $end
$var wire 32 E instr_code [31:0] $end
$var wire 32 F immediate [31:0] $end
$var wire 5 G if_id_rs2 [4:0] $end
$var wire 5 H if_id_rs1 [4:0] $end
$var wire 1 I if_id_prediction_taken $end
$var wire 32 J if_id_predicted_target [31:0] $end
$var wire 32 K if_id_pc [31:0] $end
$var wire 32 L if_id_instr [31:0] $end
$var wire 1 M if_id_compressed $end
$var wire 5 N id_ex_rs2 [4:0] $end
$var wire 5 O id_ex_rs1 [4:0] $end
$var wire 32 P id_ex_read_data2 [31:0] $end
$var wire 32 Q id_ex_read_data1 [31:0] $end
$var wire 5 R id_ex_rd [4:0] $end
$var wire 1 S id_ex_prediction_taken $end
$var wire 32 T id_ex_predicted_target [31:0] $end
$var wire 32 U id_ex_pc [31:0] $end
$var wire 32 V id_ex_imm [31:0] $end
$var wire 7 W id_ex_funct7 [6:0] $end
$var wire 3 X id_ex_funct3 [2:0] $end
$var wire 1 Y id_ex_compressed $end
$var wire 1 Z id_ex_RegWrite $end
$var wire 1 [ id_ex_MemWrite $end
$var wire 1 \ id_ex_MemToReg $end
$var wire 1 ] id_ex_MemRead $end
$var wire 1 ^ id_ex_Jump $end
$var wire 1 _ id_ex_Jalr $end
$var wire 3 ` id_ex_BranchType [2:0] $end
$var wire 1 a id_ex_ALUSrcA $end
$var wire 1 b id_ex_ALUSrc $end
$var wire 4 c id_ex_ALUOp [3:0] $end
$var wire 1 d hazard_stall $end
$var wire 7 e funct7 [6:0] $end
$var wire 3 f funct3 [2:0] $end
$var wire 32 g forward_b_data [31:0] $end
$var wire 32 h forward_a_data [31:0] $end
$var wire 32 i expanded_instruction [31:0] $end
$var wire 32 j ex_rs1_plus_imm [31:0] $end
$var wire 32 k ex_pc_plus_imm [31:0] $end
$var wire 32 l ex_mem_write_data [31:0] $end
$var wire 5 m ex_mem_rd [4:0] $end
$var wire 32 n ex_mem_pc_plus_4 [31:0] $end
$var wire 32 o ex_mem_alu_result [31:0] $end
$var wire 1 p ex_mem_RegWrite $end
$var wire 1 q ex_mem_MemWrite $end
$var wire 1 r ex_mem_MemToReg $end
$var wire 1 s ex_mem_MemRead $end
$var wire 1 t ex_mem_Jump $end
$var wire 32 u ex_jump_target [31:0] $end
$var wire 1 v ex_branch_taken $end
$var wire 32 w ex_actual_target [31:0] $end
$var wire 32 x current_pc [31:0] $end
$var wire 1 y ctrl_RegWrite $end
$var wire 1 z ctrl_MemWrite $end
$var wire 1 { ctrl_MemToReg $end
$var wire 1 | ctrl_MemRead $end
$var wire 1 } ctrl_Jump $end
$var wire 1 ~ ctrl_Jalr $end
$var wire 3 !" ctrl_BranchType [2:0] $end
$var wire 1 "" ctrl_ALUSrcA $end
$var wire 1 #" ctrl_ALUSrc $end
$var wire 4 $" ctrl_ALUOp [3:0] $end
$var wire 1 %" compressed $end
$var wire 1 &" bp_prediction_taken $end
$var wire 1 '" bp_prediction_flush $end
$var wire 2 (" bp_prediction [1:0] $end
$var wire 32 )" bp_predicted_target [31:0] $end
$var wire 1 *" bp_btb_hit $end
$var wire 32 +" alu_result [31:0] $end
$var wire 4 ," alu_control_res [3:0] $end
$var wire 2 -" ForwardB [1:0] $end
$var wire 2 ." ForwardA [1:0] $end
$scope module alu_control_inst $end
$var wire 7 /" funct7 [6:0] $end
$var wire 3 0" funct3 [2:0] $end
$var wire 4 1" ALUOp [3:0] $end
$var reg 4 2" alu_control_res [3:0] $end
$upscope $end
$scope module alu_inst $end
$var wire 4 3" alu_control [3:0] $end
$var wire 32 4" operand_a [31:0] $end
$var wire 32 5" operand_b [31:0] $end
$var wire 1 1 zero_flag $end
$var reg 32 6" alu_result [31:0] $end
$upscope $end
$scope module bp_inst $end
$var wire 1 * actual_taken $end
$var wire 32 7" actual_target [31:0] $end
$var wire 1 % clk $end
$var wire 2 8" current_state [1:0] $end
$var wire 2 9" prediction [1:0] $end
$var wire 1 ( rst $end
$var wire 1 ) update_enable $end
$var wire 1 :" valid $end
$var wire 1 &" prediction_taken $end
$var wire 32 ;" next_pc [31:0] $end
$var wire 8 <" index [7:0] $end
$var wire 1 S id_ex_prediction_taken $end
$var wire 32 =" id_ex_predicted_target [31:0] $end
$var wire 32 >" ex_pc [31:0] $end
$var wire 8 ?" ex_index [7:0] $end
$var parameter 2 @" SNT $end
$var parameter 2 A" ST $end
$var parameter 2 B" WNT $end
$var parameter 2 C" WT $end
$var reg 1 *" btb_hit $end
$var reg 32 D" predicted_target [31:0] $end
$var reg 1 '" prediction_flush $end
$var integer 32 E" i [31:0] $end
$upscope $end
$scope module control_unit_inst $end
$var wire 7 F" opcode [6:0] $end
$var wire 3 G" funct3 [2:0] $end
$var reg 4 H" ALUOp [3:0] $end
$var reg 1 #" ALUSrc $end
$var reg 1 "" ALUSrcA $end
$var reg 3 I" BranchType [2:0] $end
$var reg 1 ~ Jalr $end
$var reg 1 } Jump $end
$var reg 1 | MemRead $end
$var reg 1 { MemToReg $end
$var reg 1 z MemWrite $end
$var reg 1 y RegWrite $end
$upscope $end
$scope module decode_inst $end
$var wire 2 J" last_2 [1:0] $end
$var wire 32 K" instr [31:0] $end
$var reg 32 L" expanded_instr [31:0] $end
$var reg 32 M" expanded_instruction [31:0] $end
$var reg 3 N" funct3 [2:0] $end
$var reg 7 O" funct7 [6:0] $end
$var reg 7 P" opcode [6:0] $end
$var reg 5 Q" rd [4:0] $end
$var reg 5 R" rs1 [4:0] $end
$var reg 5 S" rs2 [4:0] $end
$scope begin beqz_block $end
$var reg 9 T" bimm [8:0] $end
$upscope $end
$scope begin bnez_block $end
$var reg 9 U" bimm [8:0] $end
$upscope $end
$scope begin cj_block $end
$var reg 12 V" jimm [11:0] $end
$upscope $end
$scope begin cjal_block $end
$var reg 12 W" jimm [11:0] $end
$upscope $end
$scope begin cs_block $end
$var reg 12 X" simm [11:0] $end
$upscope $end
$upscope $end
$scope module ex_mem_inst $end
$var wire 32 Y" alu_result_in [31:0] $end
$var wire 1 % clk $end
$var wire 32 Z" pc_plus_4_in [31:0] $end
$var wire 1 ( rst $end
$var wire 1 ' stall $end
$var wire 32 [" write_data_in [31:0] $end
$var wire 5 \" rd_in [4:0] $end
$var wire 1 Z RegWrite_in $end
$var wire 1 [ MemWrite_in $end
$var wire 1 \ MemToReg_in $end
$var wire 1 ] MemRead_in $end
$var wire 1 ^ Jump_in $end
$var reg 1 t Jump_out $end
$var reg 1 s MemRead_out $end
$var reg 1 r MemToReg_out $end
$var reg 1 q MemWrite_out $end
$var reg 1 p RegWrite_out $end
$var reg 32 ]" alu_result_out [31:0] $end
$var reg 32 ^" pc_plus_4_out [31:0] $end
$var reg 5 _" rd_out [4:0] $end
$var reg 32 `" write_data_out [31:0] $end
$upscope $end
$scope module forwarding_unit_inst $end
$var wire 1 p ex_mem_RegWrite $end
$var wire 5 a" ex_mem_rd [4:0] $end
$var wire 5 b" mem_wb_rd [4:0] $end
$var wire 1 B mem_wb_RegWrite $end
$var wire 5 c" id_ex_rs2 [4:0] $end
$var wire 5 d" id_ex_rs1 [4:0] $end
$var reg 2 e" ForwardA [1:0] $end
$var reg 2 f" ForwardB [1:0] $end
$upscope $end
$scope module hazard_unit_inst $end
$var wire 5 g" if_id_rs1 [4:0] $end
$var wire 5 h" if_id_rs2 [4:0] $end
$var wire 1 d stall $end
$var wire 5 i" id_ex_rd [4:0] $end
$var wire 1 ] id_ex_MemRead $end
$upscope $end
$scope module id_ex_inst $end
$var wire 4 j" ALUOp_in [3:0] $end
$var wire 1 "" ALUSrcA_in $end
$var wire 1 #" ALUSrc_in $end
$var wire 3 k" BranchType_in [2:0] $end
$var wire 1 ~ Jalr_in $end
$var wire 1 } Jump_in $end
$var wire 1 | MemRead_in $end
$var wire 1 { MemToReg_in $end
$var wire 1 z MemWrite_in $end
$var wire 1 y RegWrite_in $end
$var wire 1 ' cache_stall $end
$var wire 1 % clk $end
$var wire 1 , flush $end
$var wire 3 l" funct3_in [2:0] $end
$var wire 7 m" funct7_in [6:0] $end
$var wire 5 n" rd_in [4:0] $end
$var wire 5 o" rs1_in [4:0] $end
$var wire 5 p" rs2_in [4:0] $end
$var wire 1 ( rst $end
$var wire 1 d stall $end
$var wire 32 q" read_data2_in [31:0] $end
$var wire 32 r" read_data1_in [31:0] $end
$var wire 1 I prediction_taken_in $end
$var wire 32 s" predicted_target_in [31:0] $end
$var wire 32 t" pc_in [31:0] $end
$var wire 32 u" imm_in [31:0] $end
$var wire 1 M compressed_in $end
$var reg 4 v" ALUOp_out [3:0] $end
$var reg 1 a ALUSrcA_out $end
$var reg 1 b ALUSrc_out $end
$var reg 3 w" BranchType_out [2:0] $end
$var reg 1 _ Jalr_out $end
$var reg 1 ^ Jump_out $end
$var reg 1 ] MemRead_out $end
$var reg 1 \ MemToReg_out $end
$var reg 1 [ MemWrite_out $end
$var reg 1 Z RegWrite_out $end
$var reg 1 Y compressed_out $end
$var reg 3 x" funct3_out [2:0] $end
$var reg 7 y" funct7_out [6:0] $end
$var reg 32 z" imm_out [31:0] $end
$var reg 32 {" pc_out [31:0] $end
$var reg 32 |" predicted_target_out [31:0] $end
$var reg 1 S prediction_taken_out $end
$var reg 5 }" rd_out [4:0] $end
$var reg 32 ~" read_data1_out [31:0] $end
$var reg 32 !# read_data2_out [31:0] $end
$var reg 5 "# rs1_out [4:0] $end
$var reg 5 ## rs2_out [4:0] $end
$upscope $end
$scope module if_id_inst $end
$var wire 1 ' cache_stall $end
$var wire 1 % clk $end
$var wire 1 %" compressed_in $end
$var wire 1 , flush $end
$var wire 32 $# predicted_target_in [31:0] $end
$var wire 1 &" prediction_taken_in $end
$var wire 1 ( rst $end
$var wire 1 d stall $end
$var wire 1 %# pred_flush $end
$var wire 32 &# pc_in [31:0] $end
$var wire 32 '# instr_in [31:0] $end
$var reg 1 M compressed_out $end
$var reg 32 (# instr_out [31:0] $end
$var reg 32 )# pc_out [31:0] $end
$var reg 32 *# predicted_target_out [31:0] $end
$var reg 1 I prediction_taken_out $end
$upscope $end
$scope module imm_gen_inst $end
$var wire 32 +# instruction [31:0] $end
$var wire 7 ,# opcode [6:0] $end
$var reg 32 -# immediate [31:0] $end
$upscope $end
$scope module instr_mem_inst $end
$var wire 32 .# pc [31:0] $end
$var wire 32 /# instr_code [31:0] $end
$upscope $end
$scope module mem_wb_inst $end
$var wire 1 t Jump_in $end
$var wire 1 r MemToReg_in $end
$var wire 1 p RegWrite_in $end
$var wire 32 0# alu_result_in [31:0] $end
$var wire 1 % clk $end
$var wire 32 1# mem_data_in [31:0] $end
$var wire 32 2# pc_plus_4_in [31:0] $end
$var wire 5 3# rd_in [4:0] $end
$var wire 1 ( rst $end
$var wire 1 ' stall $end
$var reg 1 D Jump_out $end
$var reg 1 C MemToReg_out $end
$var reg 1 B RegWrite_out $end
$var reg 32 4# alu_result_out [31:0] $end
$var reg 32 5# mem_data_out [31:0] $end
$var reg 32 6# pc_plus_4_out [31:0] $end
$var reg 5 7# rd_out [4:0] $end
$upscope $end
$scope module pc_inst $end
$var wire 1 % clk $end
$var wire 32 8# next_pc [31:0] $end
$var wire 1 ( rst $end
$var wire 1 - stall $end
$var reg 32 9# current_pc [31:0] $end
$upscope $end
$scope module reg_file_inst $end
$var wire 1 B RegWrite $end
$var wire 1 % clk $end
$var wire 5 :# rd [4:0] $end
$var wire 5 ;# rs1 [4:0] $end
$var wire 5 <# rs2 [4:0] $end
$var wire 1 ( rst $end
$var wire 32 =# write_data [31:0] $end
$var wire 32 ># read_data2 [31:0] $end
$var wire 32 ?# read_data1 [31:0] $end
$var integer 32 @# i [31:0] $end
$upscope $end
$upscope $end
$upscope $end
$enddefinitions $end
$comment Show the parameter values. $end
$dumpall
b10 C"
b1 B"
b11 A"
b0 @"
$end
#0
$dumpvars
b100000 @#
b0 ?#
b0 >#
b0 =#
b0 <#
b0 ;#
b0 :#
b0 9#
b100 8#
b0 7#
b0 6#
b0 5#
b0 4#
b0 3#
b0 2#
b0 1#
b0 0#
b110010000000000000010010011 /#
b0 .#
b0 -#
b0 ,#
b0 +#
b0 *#
b0 )#
b0 (#
b110010000000000000010010011 '#
b0 &#
1%#
b100 $#
b0 ##
b0 "#
b0 !#
b0 ~"
b0 }"
b0 |"
b0 {"
b0 z"
b0 y"
b0 x"
b0 w"
b0 v"
b0 u"
b0 t"
b0 s"
b0 r"
b0 q"
b0 p"
b0 o"
b0 n"
b0 m"
b0 l"
b0 k"
b0 j"
b0 i"
b0 h"
b0 g"
b0 f"
b0 e"
b0 d"
b0 c"
b0 b"
b0 a"
b0 `"
b0 _"
b0 ^"
b0 ]"
b0 \"
b0 ["
b100 Z"
b0 Y"
bx X"
bx W"
bx V"
bx U"
bx T"
b0 S"
b0 R"
b0 Q"
b0 P"
b0 O"
b0 N"
b0 M"
b0 L"
b0 K"
b0 J"
b0 I"
b0 H"
b0 G"
b0 F"
b100000000 E"
b100 D"
b0 ?"
b0 >"
b0 ="
b0 <"
b0 ;"
0:"
b0 9"
b0 8"
b0 7"
b0 6"
b0 5"
b0 4"
b0 3"
b0 2"
b0 1"
b0 0"
b0 /"
b0 ."
b0 -"
b0 ,"
b0 +"
0*"
b100 )"
b0 ("
0'"
0&"
0%"
b0 $"
0#"
0""
b0 !"
0~
0}
0|
0{
0z
0y
b0 x
b0 w
0v
b0 u
0t
0s
0r
0q
0p
b0 o
b0 n
b0 m
b0 l
b0 k
b0 j
b0 i
b0 h
b0 g
b0 f
b0 e
0d
b0 c
0b
0a
b0 `
0_
0^
0]
0\
0[
0Z
0Y
b0 X
b0 W
b0 V
b0 U
b0 T
0S
b0 R
b0 Q
b0 P
b0 O
b0 N
0M
b0 L
b0 K
b0 J
0I
b0 H
b0 G
b0 F
b110010000000000000010010011 E
0D
0C
0B
b0 A
b0 @
b0 ?
b0 >
b100 =
b0 <
b0 ;
b0 :
b100 9
b0 8
b0 7
b0 6
b100 5
b0 4
b0 3
b0 2
11
b0 0
b0 /
b0 .
0-
0,
b0 +
0*
0)
1(
0'
b0 &
0%
0$
0#
b0 "
b0 !
$end
#5000
b100000 @#
b100000000 E"
1%
#10000
0%
#15000
b100000000 E"
b100000 @#
1%
#20000
0%
0(
#25000
b1100100 F
b1100100 u"
b1100100 -#
b10011 ,#
b100 $"
b100 H"
b100 j"
1#"
1y
b110010000000000000010010011 i
b110010000000000000010010011 M"
b110010000000000000010010011 +#
b11 e
b11 O"
b11 m"
b100 3
b100 S"
b100 p"
b100 <#
b1 8
b1 Q"
b1 n"
b10011 <
b10011 F"
b10011 P"
b110010000000000000010010011 L"
b1000 =
b1000 8#
b11 J"
b100 G
b100 h"
b1 <"
b1000 )"
b1000 D"
b1000 $#
b100 n
b100 ^"
b100 2#
b100 J
b100 s"
b100 *#
b110010000000000000010010011 L
b110010000000000000010010011 K"
b110010000000000000010010011 (#
b1010000000000000100010011 E
b1010000000000000100010011 '#
b1010000000000000100010011 /#
b100 x
b100 ;"
b100 &#
b100 .#
b100 9#
1%
#30000
0%
#35000
b1100 =
b1100 8#
1%#
b10100 F
b10100 u"
b10100 -#
01
b1100100 +"
b1100100 6"
b1100100 Y"
b10 <"
b1100 )"
b1100 D"
b1100 $#
b10100 G
b10100 h"
b1010000000000000100010011 i
b1010000000000000100010011 M"
b1010000000000000100010011 +#
b0 e
b0 O"
b0 m"
b10100 3
b10100 S"
b10100 p"
b10100 <#
b10 8
b10 Q"
b10 n"
b1010000000000000100010011 L"
b1100100 :
b1100100 5"
b1100100 u
b1100100 w
b1100100 7"
b111100000000000110010011 E
b111100000000000110010011 '#
b111100000000000110010011 /#
b1000 x
b1000 ;"
b1000 &#
b1000 .#
b1000 9#
b1000 J
b1000 s"
b1000 *#
b1010000000000000100010011 L
b1010000000000000100010011 K"
b1010000000000000100010011 (#
b100 K
b100 t"
b100 )#
b100 T
b100 ="
b100 |"
b100 c
b100 1"
b100 v"
1b
1Z
b11 W
b11 /"
b11 y"
b1 R
b1 \"
b1 i"
b1 }"
b100 N
b100 c"
b100 ##
b1100100 j
b1100100 +
b1100100 k
b1100100 V
b1100100 z"
b100 ?
b100 6#
1%
#40000
0%
#45000
b10100 +"
b10100 6"
b10100 Y"
b1111 F
b1111 u"
b1111 -#
b10000 =
b10000 8#
b10100 :
b10100 5"
b1 ?"
b1000 5
b11000 u
b11000 w
b11000 7"
b1111 G
b1111 h"
b111100000000000110010011 i
b111100000000000110010011 M"
b111100000000000110010011 +#
b1111 3
b1111 S"
b1111 p"
b1111 <#
b11 8
b11 Q"
b11 n"
b111100000000000110010011 L"
b11 <"
b10000 )"
b10000 D"
b10000 $#
1p
b1 m
b1 _"
b1 a"
b1 3#
b1100100 "
b1100100 .
b1100100 o
b1100100 ]"
b1100100 0#
b1000 T
b1000 ="
b1000 |"
b0 W
b0 /"
b0 y"
b10 R
b10 \"
b10 i"
b10 }"
b10100 N
b10100 c"
b10100 ##
b10100 j
b10100 V
b10100 z"
b1000 Z"
b11000 +
b11000 k
b100 U
b100 >"
b100 {"
b1100 J
b1100 s"
b1100 *#
b111100000000000110010011 L
b111100000000000110010011 K"
b111100000000000110010011 (#
b1000 K
b1000 t"
b1000 )#
b1000001010000000100011 E
b1000001010000000100011 '#
b1000001010000000100011 /#
b1100 x
b1100 ;"
b1100 &#
b1100 .#
b1100 9#
1%
#50000
0%
#55000
b1100100 7
b1100100 r"
b1100100 ?#
b10100 =
b10100 8#
1%#
b0 F
b0 u"
b0 -#
b100011 ,#
1z
b1 $"
b1 H"
b1 j"
1#"
0y
b1111 +"
b1111 6"
b1111 Y"
b1100100 2
b1100100 =#
b100 <"
b10100 )"
b10100 D"
b10100 $#
b10 G
b10 h"
b1 H
b1 g"
b1000001010000000100011 i
b1000001010000000100011 M"
b1000001010000000100011 +#
b10 3
b10 S"
b10 p"
b10 <#
b1 4
b1 R"
b1 o"
b1 ;#
b10 f
b10 G"
b10 N"
b10 l"
b0 8
b0 Q"
b0 n"
b100011 <
b100011 F"
b100011 P"
b1000001010000000100011 L"
b1111 :
b1111 5"
b10 ?"
b1100 5
b10111 u
b10111 w
b10111 7"
b1100001010001000100011 E
b1100001010001000100011 '#
b1100001010001000100011 /#
b10000 x
b10000 ;"
b10000 &#
b10000 .#
b10000 9#
b10000 J
b10000 s"
b10000 *#
b1000001010000000100011 L
b1000001010000000100011 K"
b1000001010000000100011 (#
b1100 K
b1100 t"
b1100 )#
b1100 T
b1100 ="
b1100 |"
b11 R
b11 \"
b11 i"
b11 }"
b1111 N
b1111 c"
b1111 ##
b1111 j
b1111 V
b1111 z"
b1100 Z"
b10111 +
b10111 k
b1000 U
b1000 >"
b1000 {"
b1000 n
b1000 ^"
b1000 2#
b10 m
b10 _"
b10 a"
b10 3#
b10100 "
b10100 .
b10100 o
b10100 ]"
b10100 0#
1B
b1 >
b1 b"
b1 7#
b1 :#
b1100100 A
b1100100 4#
1%
#60000
0%
#65000
b10100 g
b10100 ["
b1100100 ;
b1100100 4"
b10100 2
b10100 =#
01
b1100100 +"
b1100100 6"
b1100100 Y"
b1100100 h
b100 F
b100 u"
b100 -#
b11000 =
b11000 8#
b1 -"
b1 f"
b0 :
b0 5"
b11 ?"
b10000 5
b1100 u
b1100 w
b1100 7"
b11 G
b11 h"
b1100001010001000100011 i
b1100001010001000100011 M"
b1100001010001000100011 +#
b11 3
b11 S"
b11 p"
b11 <#
b100 8
b100 Q"
b100 n"
b1100001010001000100011 L"
b101 <"
b11000 )"
b11000 D"
b11000 $#
b1000 ?
b1000 6#
b10 >
b10 b"
b10 7#
b10 :#
b10100 A
b10100 4#
b1100 n
b1100 ^"
b1100 2#
b11 m
b11 _"
b11 a"
b11 3#
b1111 "
b1111 .
b1111 o
b1111 ]"
b1111 0#
b10000 T
b10000 ="
b10000 |"
b1 c
b1 1"
b1 v"
1[
0Z
b10 X
b10 0"
b10 x"
b0 R
b0 \"
b0 i"
b0 }"
b10 N
b10 c"
b10 ##
b1 O
b1 d"
b1 "#
b1100100 j
b0 V
b0 z"
b1100100 Q
b1100100 ~"
b10000 Z"
b1100 +
b1100 k
b1100 U
b1100 >"
b1100 {"
b10100 J
b10100 s"
b10100 *#
b1100001010001000100011 L
b1100001010001000100011 K"
b1100001010001000100011 (#
b10000 K
b10000 t"
b10000 )#
b1010001000000011 E
b1010001000000011 '#
b1010001000000011 /#
b10100 x
b10100 ;"
b10100 &#
b10100 .#
b10100 9#
1%
#70000
0%
#75000
b1111 g
b1111 ["
b11100 =
b11100 8#
1%#
b0 F
b0 u"
b0 -#
b11 ,#
1{
1|
1y
b0 $"
b0 H"
b0 j"
1#"
0z
b1101000 +"
b1101000 6"
b1101000 Y"
b0 6
b0 q"
b0 >#
b1111 2
b1111 =#
b110 <"
b11100 )"
b11100 D"
b11100 $#
b0 G
b0 h"
b1010001000000011 i
b1010001000000011 M"
b1010001000000011 +#
b0 3
b0 S"
b0 p"
b0 <#
b11 <
b11 F"
b11 P"
b1010001000000011 L"
b100 :
b100 5"
b100 ?"
b10100 5
b10100 u
b10100 w
b10100 7"
b1 -"
b1 f"
b10000001010001010000011 E
b10000001010001010000011 '#
b10000001010001010000011 /#
b11000 x
b11000 ;"
b11000 &#
b11000 .#
b11000 9#
b11000 J
b11000 s"
b11000 *#
b1010001000000011 L
b1010001000000011 K"
b1010001000000011 (#
b10100 K
b10100 t"
b10100 )#
b10100 T
b10100 ="
b10100 |"
b100 R
b100 \"
b100 i"
b100 }"
b11 N
b11 c"
b11 ##
b1101000 j
b100 V
b100 z"
b10100 Z"
b10100 +
b10100 k
b10000 U
b10000 >"
b10000 {"
b10000 n
b10000 ^"
b10000 2#
1#
1q
0p
b0 m
b0 _"
b0 a"
b0 3#
b10100 !
b10100 0
b10100 l
b10100 `"
b1100100 "
b1100100 .
b1100100 o
b1100100 ]"
b1100100 0#
b1100 ?
b1100 6#
b11 >
b11 b"
b11 7#
b11 :#
b1111 A
b1111 4#
1%
#80000
0%
#85000
1-
b0 g
b0 ["
b1100100 2
b1100100 =#
1d
b1100100 +"
b1100100 6"
b1100100 Y"
b100 F
b100 u"
b100 -#
b100000 =
b100000 8#
b0 -"
b0 f"
b0 :
b0 5"
b101 ?"
b11000 5
b100 G
b100 h"
b10000001010001010000011 i
b10000001010001010000011 M"
b10000001010001010000011 +#
b100 3
b100 S"
b100 p"
b100 <#
b101 8
b101 Q"
b101 n"
b10000001010001010000011 L"
b111 <"
b100000 )"
b100000 D"
b100000 $#
b10000 ?
b10000 6#
0B
b0 >
b0 b"
b0 7#
b0 :#
b1100100 A
b1100100 4#
b10100 n
b10100 ^"
b10100 2#
b100 m
b100 _"
b100 a"
b100 3#
b1111 !
b1111 0
b1111 l
b1111 `"
b1101000 "
b1101000 .
b1101000 o
b1101000 ]"
b1101000 0#
b11000 T
b11000 ="
b11000 |"
b0 c
b0 1"
b0 v"
1\
0[
1]
1Z
b0 N
b0 c"
b0 ##
b1100100 j
b0 V
b0 z"
b11000 Z"
b10100 +
b10100 k
b10100 U
b10100 >"
b10100 {"
b11100 J
b11100 s"
b11100 *#
b10000001010001010000011 L
b10000001010001010000011 K"
b10000001010001010000011 (#
b11000 K
b11000 t"
b11000 )#
b1010001100000011 E
b1010001100000011 '#
b1010001100000011 /#
b11100 x
b11100 ;"
b11100 &#
b11100 .#
b11100 9#
1%
#90000
0%
#95000
11
b0 +"
b0 6"
b0 Y"
0-
b0 ;
b0 4"
0d
b0 j
b0 h
b1101000 2
b1101000 =#
b0 ?"
b100 5
b0 u
b0 w
b0 7"
b0 T
b0 ="
b0 |"
0b
0\
0]
0Z
b0 X
b0 0"
b0 x"
b0 R
b0 \"
b0 i"
b0 }"
b0 O
b0 d"
b0 "#
b0 Q
b0 ~"
b100 Z"
b0 +
b0 k
b0 U
b0 >"
b0 {"
b11000 n
b11000 ^"
b11000 2#
1r
0#
0q
1$
1s
1p
b0 !
b0 0
b0 l
b0 `"
b1100100 "
b1100100 .
b1100100 o
b1100100 ]"
b1100100 0#
b10100 ?
b10100 6#
b100 >
b100 b"
b100 7#
b100 :#
b1101000 A
b1101000 4#
1%
#100000
0%
#105000
b0 g
b0 ["
b1100100 ;
b1100100 4"
b0 2
b0 =#
01
b1101000 +"
b1101000 6"
b1101000 Y"
b1100100 h
b0 F
b0 u"
b0 -#
b100100 =
b100100 8#
b100 :
b100 5"
b1 -"
b1 f"
b110 ?"
b11100 5
b11100 u
b11100 w
b11100 7"
b0 G
b0 h"
b1010001100000011 i
b1010001100000011 M"
b1010001100000011 +#
b0 3
b0 S"
b0 p"
b0 <#
b110 8
b110 Q"
b110 n"
b1010001100000011 L"
b1000 <"
b100100 )"
b100100 D"
b100100 $#
b11000 ?
b11000 6#
1C
1B
b1100100 A
b1100100 4#
b100 n
b100 ^"
b100 2#
0r
0$
0s
0p
b0 m
b0 _"
b0 a"
b0 3#
b0 "
b0 .
b0 o
b0 ]"
b0 0#
b11100 T
b11100 ="
b11100 |"
1b
1\
1]
1Z
b10 X
b10 0"
b10 x"
b101 R
b101 \"
b101 i"
b101 }"
b100 N
b100 c"
b100 ##
b1 O
b1 d"
b1 "#
b1101000 j
b100 V
b100 z"
b1100100 Q
b1100100 ~"
b11100 Z"
b11100 +
b11100 k
b11000 U
b11000 >"
b11000 {"
b100000 J
b100000 s"
b100000 *#
b1010001100000011 L
b1010001100000011 K"
b1010001100000011 (#
b11100 K
b11100 t"
b11100 )#
b10000001010001110000011 E
b10000001010001110000011 '#
b10000001010001110000011 /#
b100000 x
b100000 ;"
b100000 &#
b100000 .#
b100000 9#
1%
#110000
0%
#115000
b101000 =
b101000 8#
1%#
b100 F
b100 u"
b100 -#
b1100100 +"
b1100100 6"
b1100100 Y"
b1001 <"
b101000 )"
b101000 D"
b101000 $#
b100 G
b100 h"
b10000001010001110000011 i
b10000001010001110000011 M"
b10000001010001110000011 +#
b100 3
b100 S"
b100 p"
b100 <#
b111 8
b111 Q"
b111 n"
b10000001010001110000011 L"
b0 :
b0 5"
b111 ?"
b100000 5
b0 -"
b0 f"
b11100110000010000110011 E
b11100110000010000110011 '#
b11100110000010000110011 /#
b100100 x
b100100 ;"
b100100 &#
b100100 .#
b100100 9#
b100100 J
b100100 s"
b100100 *#
b10000001010001110000011 L
b10000001010001110000011 K"
b10000001010001110000011 (#
b100000 K
b100000 t"
b100000 )#
b100000 T
b100000 ="
b100000 |"
b110 R
b110 \"
b110 i"
b110 }"
b0 N
b0 c"
b0 ##
b1100100 j
b0 V
b0 z"
b100000 Z"
b11100 +
b11100 k
b11100 U
b11100 >"
b11100 {"
b11100 n
b11100 ^"
b11100 2#
1r
1$
1s
1p
b101 m
b101 _"
b101 a"
b101 3#
b1101000 "
b1101000 .
b1101000 o
b1101000 ]"
b1101000 0#
b100 ?
b100 6#
0C
0B
b0 >
b0 b"
b0 7#
b0 :#
b0 A
b0 4#
1%
#120000
0%
